{
    "Version": "2012-10-17",
    "Statement": [
        {
            "Effect": "Allow",
            "Principal": {
                "Federated": "arn:aws:iam::951865328368:oidc-provider/oidc.eks.ap-southeast-1.amazonaws.com/id/6A5E8A0E9D04892C114AF943A5583C0A"
            },
            "Action": "sts:AssumeRoleWithWebIdentity",
            "Condition": {
                "StringEquals": {
                    "oidc.eks.ap-southeast-1.amazonaws.com/id/6A5E8A0E9D04892C114AF943A5583C0A:aud": "sts.amazonaws.com"
                }
            }
        }
    ]
}
